M48
; DRILL file {KiCad (6.0.1)} date Fri 25 Feb 2022 13:57:41
; FORMAT={-:-/ absolute / metric / decimal}
; #@! TF.CreationDate,2022-02-25T13:57:41+00:00
; #@! TF.GenerationSoftware,Kicad,Pcbnew,(6.0.1)
; #@! TF.FileFunction,Plated,1,2,PTH
FMAT,2
METRIC
; #@! TA.AperFunction,Plated,PTH,ComponentDrill
T1C0.900
; #@! TA.AperFunction,Plated,PTH,ComponentDrill
T2C1.000
%
G90
G05
T1
X30.534Y-26.168
X33.074Y-26.168
X34.049Y-32.403
X34.049Y-34.943
X71.049Y-32.403
X71.049Y-34.943
T2
X52.549Y-39.393
X52.549Y-41.933
X61.549Y-32.128
X61.549Y-34.668
X76.049Y-33.668
X76.049Y-36.208
X76.049Y-38.748
X76.049Y-41.288
T0
M30
