%TF.GenerationSoftware,KiCad,Pcbnew,(6.0.1)*%
%TF.CreationDate,2022-02-25T13:57:38+00:00*%
%TF.ProjectId,ODS_PCB,4f44535f-5043-4422-9e6b-696361645f70,rev?*%
%TF.SameCoordinates,Original*%
%TF.FileFunction,Copper,L2,Bot*%
%TF.FilePolarity,Positive*%
%FSLAX46Y46*%
G04 Gerber Fmt 4.6, Leading zero omitted, Abs format (unit mm)*
G04 Created by KiCad (PCBNEW (6.0.1)) date 2022-02-25 13:57:38*
%MOMM*%
%LPD*%
G01*
G04 APERTURE LIST*
%TA.AperFunction,WasherPad*%
%ADD10C,3.500000*%
%TD*%
%TA.AperFunction,ComponentPad*%
%ADD11R,1.700000X1.700000*%
%TD*%
%TA.AperFunction,ComponentPad*%
%ADD12O,1.700000X1.700000*%
%TD*%
%TA.AperFunction,ComponentPad*%
%ADD13R,1.800000X1.800000*%
%TD*%
%TA.AperFunction,ComponentPad*%
%ADD14C,1.800000*%
%TD*%
G04 APERTURE END LIST*
D10*
%TO.P,REF\u002A\u002A,*%
%TO.N,*%
X38548700Y-39667640D03*
%TD*%
%TO.P,REF\u002A\u002A,*%
%TO.N,*%
X38548700Y-27667640D03*
%TD*%
%TO.P,REF\u002A\u002A,*%
%TO.N,*%
X66548700Y-39667640D03*
%TD*%
%TO.P,REF\u002A\u002A,*%
%TO.N,*%
X66548700Y-27667640D03*
%TD*%
D11*
%TO.P,J0,1,Pin_1*%
%TO.N,SDA*%
X76048700Y-33667640D03*
D12*
%TO.P,J0,2,Pin_2*%
%TO.N,SCL*%
X76048700Y-36207640D03*
%TO.P,J0,3,Pin_3*%
%TO.N,Vcc*%
X76048700Y-38747640D03*
%TO.P,J0,4,Pin_4*%
%TO.N,GND*%
X76048700Y-41287640D03*
%TD*%
D11*
%TO.P,J2,1,Pin_1*%
%TO.N,Photosignal*%
X61548700Y-34667640D03*
D12*
%TO.P,J2,2,Pin_2*%
%TO.N,GND*%
X61548700Y-32127640D03*
%TD*%
D13*
%TO.P,D1,1,K*%
%TO.N,/LED1*%
X34048700Y-34942640D03*
D14*
%TO.P,D1,2,A*%
%TO.N,Net-(D1-Pad2)*%
X34048700Y-32402640D03*
%TD*%
D13*
%TO.P,D0,1,K*%
%TO.N,/LED0*%
X33073700Y-26167640D03*
D14*
%TO.P,D0,2,A*%
%TO.N,Net-(D0-Pad2)*%
X30533700Y-26167640D03*
%TD*%
D11*
%TO.P,J1,1,Pin_1*%
%TO.N,Vcc*%
X52548700Y-39392640D03*
D12*
%TO.P,J1,2,Pin_2*%
%TO.N,GND*%
X52548700Y-41932640D03*
%TD*%
D13*
%TO.P,D2,1,K*%
%TO.N,/V-*%
X71048700Y-34942640D03*
D14*
%TO.P,D2,2,A*%
%TO.N,GND*%
X71048700Y-32402640D03*
%TD*%
M02*
